{
    "versions": [
        {
            "version": "3.0.3",
            "title": "[3.0.3] - 2024-12-01",
            "date": "2024-12-01",
            "body": "### New Features\r\n\r\n-   Added a few options for novels including light/dark background colors and increased font size. Custom color/size options to come in a future update once I have tested them. These options can only be changed in the popup options not in the reader\r\n-   Enabled smooth scrolling with arrow keys\r\n\r\n### Bug Fixes\r\n\r\n-   Fixed a bug that forced a chapter list check when loading a page if you already tracked the series. Should drastically speed up loading Webtoons\r\n\r\n### Mirror Fixes\r\n\r\n-   Reaper Scans - Fixed issue with loading images in new chapters\r\n-   Flame Scans - They changed url format and image source again\r\n-   SeiManga - Fixed manga urls\r\n-   Flame Scans - Fixed image loading\r\n-   Evil Flowers - Switched to Madara theme\r\n-   Cypher Scans - Changed domain\r\n-   Disaster Scans - Fixed chapter list\r\n-   Dragon Tea - Url format change, but it is getting cloudflare errors on backend so not working fully until they stop that\r\n-   Drake Comic - New domain\r\n-   Flame Scans - New website\r\n-   Hari Manga - New domain\r\n-   Hiperdex - Url format change, but it is getting cloudflare errors on backend so not working fully until they stop that\r\n-   Like Manga - Changed to new domain and Madara theme\r\n-   Reset Scans - New domain\r\n-   Seri Manga - New domain\r\n-   Void Scans - New domain\r\n-   UToon - Fix for chapter list on series that have locked chapters\r\n-   Manga Buddy - Fixed chapter list\r\n-   Raw Kuma - Added Chinese and Korean language codes\r\n\r\n### New Mirrors\r\n\r\n-   Radiant Scans (https://radiantscans.com/)\r\n-   Usagi (https://web.usagi.one/)\r\n-   Raw Kuma (https://rawkuma.com/)\r\n-   ManhuaPlus.org (https://manhuaplus.org/) - This is related to .com but uses a different template so it is a seperate implimentation\r\n-   AGR Comics (https://agrcomics.com) - This is a rebrand of Animated Glitch Comics\r\n-   Weeb Central - (https://weebcentral.com) - New site for Manga See\r\n-   Nami Comi - (https://namicomi.com/en/) - This seems to only work when it wants to, not sure why but I will investigate. For now reload on a chapter until the reader shows up\r\n-   Thunder Scans - (https://en-thunderscans.com/)\r\n-   Kappa Beast - (https://kappabeast.com/) - Getting cloudflare errors, will work if they remove strict protection\r\n-   NIFTeam - (https://read-nifteam.info/slide/)\r\n\r\n### Disabled Mirrors\r\n\r\n-   247 Manga - Website no longer available\r\n-   Animated Glitched Comics - They went through some kind of rebrand with a new name and site so I am making one from scratch\r\n-   Astral Library - Website down for months\r\n-   Astra Scans - Website down for months\r\n-   ChibiManga - Website down for months\r\n-   Comic Don - Website down for months\r\n-   Creepy Scans - Website down and ssl validation error\r\n-   Fun Manga - Website down for months\r\n-   Komicast - Website no longer available\r\n-   Komikav - Website no longer available\r\n-   Lily Manga - Website has been down for months\r\n-   Luminous Scans - The group has shut down\r\n-   Manga Bob - Websie has been down for months\r\n-   Manga Cultivator - Website has been down for months\r\n-   Manga Great - Website has been down for months\r\n-   Manga Sy - Website has been down for months\r\n-   Manga Tx - Website has been down for months\r\n-   MangazukiMe - Website has been down for months\r\n-   Manhuas - Webstite has been down for months\r\n-   Mint Manga - Domain is for sale\r\n-   Mixed Manga - Domain is for sale\r\n-   MM Scans - Website has been down for months\r\n-   Nocturnal Scans - Website has been down for months\r\n-   Radiant Scans - Group has shut down\r\n-   Random Translations - Website has been down for months\r\n-   Read Manga Today - Website has been down for months\r\n-   Ruya Manga - Website has been down for months\r\n-   Sawamics - Website has been down for months\r\n-   ScanFR - Website is a gambling site now?\r\n-   SK Scans - Website has been down for months\r\n-   Twilight Scans - Website has been down for months\r\n-   Ult Manga - Website has been down for months\r\n-   Unemployed Scans - Website has been down for months",
            "parsed": {
                "_": [
                    "Added a few options for novels including light/dark background colors and increased font size. Custom color/size options to come in a future update once I have tested them. These options can only be changed in the popup options not in the reader",
                    "Enabled smooth scrolling with arrow keys",
                    "Fixed a bug that forced a chapter list check when loading a page if you already tracked the series. Should drastically speed up loading Webtoons",
                    "Reaper Scans - Fixed issue with loading images in new chapters",
                    "Flame Scans - They changed url format and image source again",
                    "SeiManga - Fixed manga urls",
                    "Flame Scans - Fixed image loading",
                    "Evil Flowers - Switched to Madara theme",
                    "Cypher Scans - Changed domain",
                    "Disaster Scans - Fixed chapter list",
                    "Dragon Tea - Url format change, but it is getting cloudflare errors on backend so not working fully until they stop that",
                    "Drake Comic - New domain",
                    "Flame Scans - New website",
                    "Hari Manga - New domain",
                    "Hiperdex - Url format change, but it is getting cloudflare errors on backend so not working fully until they stop that",
                    "Like Manga - Changed to new domain and Madara theme",
                    "Reset Scans - New domain",
                    "Seri Manga - New domain",
                    "Void Scans - New domain",
                    "UToon - Fix for chapter list on series that have locked chapters",
                    "Manga Buddy - Fixed chapter list",
                    "Raw Kuma - Added Chinese and Korean language codes",
                    "Radiant Scans (https://radiantscans.com/)",
                    "Usagi (https://web.usagi.one/)",
                    "Raw Kuma (https://rawkuma.com/)",
                    "ManhuaPlus.org (https://manhuaplus.org/) - This is related to .com but uses a different template so it is a seperate implimentation",
                    "AGR Comics (https://agrcomics.com) - This is a rebrand of Animated Glitch Comics",
                    "Weeb Central - (https://weebcentral.com) - New site for Manga See",
                    "Nami Comi - (https://namicomi.com/en/) - This seems to only work when it wants to, not sure why but I will investigate. For now reload on a chapter until the reader shows up",
                    "Thunder Scans - (https://en-thunderscans.com/)",
                    "Kappa Beast - (https://kappabeast.com/) - Getting cloudflare errors, will work if they remove strict protection",
                    "NIFTeam - (https://read-nifteam.info/slide/)",
                    "247 Manga - Website no longer available",
                    "Animated Glitched Comics - They went through some kind of rebrand with a new name and site so I am making one from scratch",
                    "Astral Library - Website down for months",
                    "Astra Scans - Website down for months",
                    "ChibiManga - Website down for months",
                    "Comic Don - Website down for months",
                    "Creepy Scans - Website down and ssl validation error",
                    "Fun Manga - Website down for months",
                    "Komicast - Website no longer available",
                    "Komikav - Website no longer available",
                    "Lily Manga - Website has been down for months",
                    "Luminous Scans - The group has shut down",
                    "Manga Bob - Websie has been down for months",
                    "Manga Cultivator - Website has been down for months",
                    "Manga Great - Website has been down for months",
                    "Manga Sy - Website has been down for months",
                    "Manga Tx - Website has been down for months",
                    "MangazukiMe - Website has been down for months",
                    "Manhuas - Webstite has been down for months",
                    "Mint Manga - Domain is for sale",
                    "Mixed Manga - Domain is for sale",
                    "MM Scans - Website has been down for months",
                    "Nocturnal Scans - Website has been down for months",
                    "Radiant Scans - Group has shut down",
                    "Random Translations - Website has been down for months",
                    "Read Manga Today - Website has been down for months",
                    "Ruya Manga - Website has been down for months",
                    "Sawamics - Website has been down for months",
                    "ScanFR - Website is a gambling site now?",
                    "SK Scans - Website has been down for months",
                    "Twilight Scans - Website has been down for months",
                    "Ult Manga - Website has been down for months",
                    "Unemployed Scans - Website has been down for months"
                ],
                "New Features": [
                    "Added a few options for novels including light/dark background colors and increased font size. Custom color/size options to come in a future update once I have tested them. These options can only be changed in the popup options not in the reader",
                    "Enabled smooth scrolling with arrow keys"
                ],
                "Bug Fixes": [
                    "Fixed a bug that forced a chapter list check when loading a page if you already tracked the series. Should drastically speed up loading Webtoons"
                ],
                "Mirror Fixes": [
                    "Reaper Scans - Fixed issue with loading images in new chapters",
                    "Flame Scans - They changed url format and image source again",
                    "SeiManga - Fixed manga urls",
                    "Flame Scans - Fixed image loading",
                    "Evil Flowers - Switched to Madara theme",
                    "Cypher Scans - Changed domain",
                    "Disaster Scans - Fixed chapter list",
                    "Dragon Tea - Url format change, but it is getting cloudflare errors on backend so not working fully until they stop that",
                    "Drake Comic - New domain",
                    "Flame Scans - New website",
                    "Hari Manga - New domain",
                    "Hiperdex - Url format change, but it is getting cloudflare errors on backend so not working fully until they stop that",
                    "Like Manga - Changed to new domain and Madara theme",
                    "Reset Scans - New domain",
                    "Seri Manga - New domain",
                    "Void Scans - New domain",
                    "UToon - Fix for chapter list on series that have locked chapters",
                    "Manga Buddy - Fixed chapter list",
                    "Raw Kuma - Added Chinese and Korean language codes"
                ],
                "New Mirrors": [
                    "Radiant Scans (https://radiantscans.com/)",
                    "Usagi (https://web.usagi.one/)",
                    "Raw Kuma (https://rawkuma.com/)",
                    "ManhuaPlus.org (https://manhuaplus.org/) - This is related to .com but uses a different template so it is a seperate implimentation",
                    "AGR Comics (https://agrcomics.com) - This is a rebrand of Animated Glitch Comics",
                    "Weeb Central - (https://weebcentral.com) - New site for Manga See",
                    "Nami Comi - (https://namicomi.com/en/) - This seems to only work when it wants to, not sure why but I will investigate. For now reload on a chapter until the reader shows up",
                    "Thunder Scans - (https://en-thunderscans.com/)",
                    "Kappa Beast - (https://kappabeast.com/) - Getting cloudflare errors, will work if they remove strict protection",
                    "NIFTeam - (https://read-nifteam.info/slide/)"
                ],
                "Disabled Mirrors": [
                    "247 Manga - Website no longer available",
                    "Animated Glitched Comics - They went through some kind of rebrand with a new name and site so I am making one from scratch",
                    "Astral Library - Website down for months",
                    "Astra Scans - Website down for months",
                    "ChibiManga - Website down for months",
                    "Comic Don - Website down for months",
                    "Creepy Scans - Website down and ssl validation error",
                    "Fun Manga - Website down for months",
                    "Komicast - Website no longer available",
                    "Komikav - Website no longer available",
                    "Lily Manga - Website has been down for months",
                    "Luminous Scans - The group has shut down",
                    "Manga Bob - Websie has been down for months",
                    "Manga Cultivator - Website has been down for months",
                    "Manga Great - Website has been down for months",
                    "Manga Sy - Website has been down for months",
                    "Manga Tx - Website has been down for months",
                    "MangazukiMe - Website has been down for months",
                    "Manhuas - Webstite has been down for months",
                    "Mint Manga - Domain is for sale",
                    "Mixed Manga - Domain is for sale",
                    "MM Scans - Website has been down for months",
                    "Nocturnal Scans - Website has been down for months",
                    "Radiant Scans - Group has shut down",
                    "Random Translations - Website has been down for months",
                    "Read Manga Today - Website has been down for months",
                    "Ruya Manga - Website has been down for months",
                    "Sawamics - Website has been down for months",
                    "ScanFR - Website is a gambling site now?",
                    "SK Scans - Website has been down for months",
                    "Twilight Scans - Website has been down for months",
                    "Ult Manga - Website has been down for months",
                    "Unemployed Scans - Website has been down for months"
                ]
            }
        },
        {
            "version": "3.0.3",
            "title": "[3.0.3] - 2024-08-25",
            "date": "2024-08-25",
            "body": "### Bug Fixes\r\n\r\n-   Fixed an issue with search bar having a white background when in dark mode\r\n\r\n### Mirror Fixes\r\n\r\n-   Reset Scans - New domain\r\n-   Manga Reader - Disabled non english chapters from getting picked up for now because it breaks the chapter list\r\n-   Asura Comics - A bunch of changes to site design and url scheme\r\n-   Luminous Scans - New domain\r\n-   Read Comic Online - Fix for image loading (Credit @Jay)\r\n-   Reaper Scans - New website, looks like this might actually work now o.o\r\n-   Fan Comics - New domain\r\n-   Night Scans - New domain\r\n\r\n### New Mirrors\r\n\r\n-   UToon - https://utoon.net/\r\n-   Drake Comic - https://drakecomic.com/\r\n-   Cypher Scans - https://cypherscans.xyz/\r\n\r\n### New Features\r\n\r\n-   I have added an experimental way to support novels by faking images to Reaper Scans. This is a test to see if I can do this without rewriting many parts of the extension to support text. This is best used in webtoon mode and I may look into ways to force it for these. For anyone interested try it out and give me feedback on discord as I fine tune this.\r\n\r\n### Notes\r\n\r\n-   I have finally gotten around to working on the website. Currently I just copy/pasted the orignal website but I plan on working on it more later to change it. I adjusted the links in amr for my server\r\n-   I created a patreon and adjusted the links, I put this off for a long time but decided to end up doing it after all. My commitment to mainting this stays the same no matter the result of this as I use this extension extensively myself so keeping it maintained is also for my own use",
            "parsed": {
                "_": [
                    "Fixed an issue with search bar having a white background when in dark mode",
                    "Reset Scans - New domain",
                    "Manga Reader - Disabled non english chapters from getting picked up for now because it breaks the chapter list",
                    "Asura Comics - A bunch of changes to site design and url scheme",
                    "Luminous Scans - New domain",
                    "Read Comic Online - Fix for image loading (Credit @Jay)",
                    "Reaper Scans - New website, looks like this might actually work now o.o",
                    "Fan Comics - New domain",
                    "Night Scans - New domain",
                    "UToon - https://utoon.net/",
                    "Drake Comic - https://drakecomic.com/",
                    "Cypher Scans - https://cypherscans.xyz/",
                    "I have added an experimental way to support novels by faking images to Reaper Scans. This is a test to see if I can do this without rewriting many parts of the extension to support text. This is best used in webtoon mode and I may look into ways to force it for these. For anyone interested try it out and give me feedback on discord as I fine tune this.",
                    "I have finally gotten around to working on the website. Currently I just copy/pasted the orignal website but I plan on working on it more later to change it. I adjusted the links in amr for my server",
                    "I created a patreon and adjusted the links, I put this off for a long time but decided to end up doing it after all. My commitment to mainting this stays the same no matter the result of this as I use this extension extensively myself so keeping it maintained is also for my own use"
                ],
                "Bug Fixes": [
                    "Fixed an issue with search bar having a white background when in dark mode"
                ],
                "Mirror Fixes": [
                    "Reset Scans - New domain",
                    "Manga Reader - Disabled non english chapters from getting picked up for now because it breaks the chapter list",
                    "Asura Comics - A bunch of changes to site design and url scheme",
                    "Luminous Scans - New domain",
                    "Read Comic Online - Fix for image loading (Credit @Jay)",
                    "Reaper Scans - New website, looks like this might actually work now o.o",
                    "Fan Comics - New domain",
                    "Night Scans - New domain"
                ],
                "New Mirrors": [
                    "UToon - https://utoon.net/",
                    "Drake Comic - https://drakecomic.com/",
                    "Cypher Scans - https://cypherscans.xyz/"
                ],
                "New Features": [
                    "I have added an experimental way to support novels by faking images to Reaper Scans. This is a test to see if I can do this without rewriting many parts of the extension to support text. This is best used in webtoon mode and I may look into ways to force it for these. For anyone interested try it out and give me feedback on discord as I fine tune this."
                ],
                "Notes": [
                    "I have finally gotten around to working on the website. Currently I just copy/pasted the orignal website but I plan on working on it more later to change it. I adjusted the links in amr for my server",
                    "I created a patreon and adjusted the links, I put this off for a long time but decided to end up doing it after all. My commitment to mainting this stays the same no matter the result of this as I use this extension extensively myself so keeping it maintained is also for my own use"
                ]
            }
        },
        {
            "version": "3.0.2",
            "title": "[3.0.2] - 2024-07-12",
            "date": "2024-07-12",
            "body": "### New Features\r\n\r\n-   Added a simple server and mirror for testing various different errors on so we can control when they happen and work on notifications/fixes for common problems\r\n\r\n### Changed Features\r\n\r\n-   I have re-enabled the error icons for series that have errors, and started added some different error messages in to identify the issue. More error codes will follow\r\n\r\n### Mirror Fixes\r\n\r\n-   Manga Galaxy - Fixed issue with single digit chapters\r\n-   Reset Scans - New domain\r\n-   Flame Scans - New domain\r\n-   Nice Oppai - Changed language to Thai instead of english\r\n-   FM Team - Change language to French instead of english\r\n-   Manga Freak - Changed domains, possible issue with cloudflare\r\n-   Read Comic Online - Changed image encryption and fix for alternative image source (Credit @jaygitsby)\r\n-   Manga Hasu - New domain\r\n-   Surya Toon - Extra chapter being picked up\r\n-   Many Toon - Changed image source\r\n-   Manhwa Freak - New domain. The old one still works but they will be shutting it down so migration to the new site is advised\r\n-   Read Comic Online - Fixed an issue recognizing chapter pages\r\n-   HyperDex - New domain\r\n\r\n### New Mirrors\r\n\r\n-   Fire Scans - https://firescans.xyz/",
            "parsed": {
                "_": [
                    "Added a simple server and mirror for testing various different errors on so we can control when they happen and work on notifications/fixes for common problems",
                    "I have re-enabled the error icons for series that have errors, and started added some different error messages in to identify the issue. More error codes will follow",
                    "Manga Galaxy - Fixed issue with single digit chapters",
                    "Reset Scans - New domain",
                    "Flame Scans - New domain",
                    "Nice Oppai - Changed language to Thai instead of english",
                    "FM Team - Change language to French instead of english",
                    "Manga Freak - Changed domains, possible issue with cloudflare",
                    "Read Comic Online - Changed image encryption and fix for alternative image source (Credit @jaygitsby)",
                    "Manga Hasu - New domain",
                    "Surya Toon - Extra chapter being picked up",
                    "Many Toon - Changed image source",
                    "Manhwa Freak - New domain. The old one still works but they will be shutting it down so migration to the new site is advised",
                    "Read Comic Online - Fixed an issue recognizing chapter pages",
                    "HyperDex - New domain",
                    "Fire Scans - https://firescans.xyz/"
                ],
                "New Features": [
                    "Added a simple server and mirror for testing various different errors on so we can control when they happen and work on notifications/fixes for common problems"
                ],
                "Changed Features": [
                    "I have re-enabled the error icons for series that have errors, and started added some different error messages in to identify the issue. More error codes will follow"
                ],
                "Mirror Fixes": [
                    "Manga Galaxy - Fixed issue with single digit chapters",
                    "Reset Scans - New domain",
                    "Flame Scans - New domain",
                    "Nice Oppai - Changed language to Thai instead of english",
                    "FM Team - Change language to French instead of english",
                    "Manga Freak - Changed domains, possible issue with cloudflare",
                    "Read Comic Online - Changed image encryption and fix for alternative image source (Credit @jaygitsby)",
                    "Manga Hasu - New domain",
                    "Surya Toon - Extra chapter being picked up",
                    "Many Toon - Changed image source",
                    "Manhwa Freak - New domain. The old one still works but they will be shutting it down so migration to the new site is advised",
                    "Read Comic Online - Fixed an issue recognizing chapter pages",
                    "HyperDex - New domain"
                ],
                "New Mirrors": [
                    "Fire Scans - https://firescans.xyz/"
                ]
            }
        },
        {
            "version": null,
            "title": "Disabled Mirrors",
            "date": null,
            "body": "-   Toonily.Net\r\n-   Leveler Scans\r\n-   Manga 1st - Warnings from both uBlock and antivirus software about this site, will not bypass to check if it is still active and I advise no one to read from it\r\n-   Manga Dods\r\n-   Manga Lab - Warning about expired security certificate\r\n-   Read Manhua\r\n-   Alpha Scans - Warning from vpn about security certificate validation\r\n-   Cosmic Scans - The website says they are closed",
            "parsed": {
                "_": [
                    "Toonily.Net",
                    "Leveler Scans",
                    "Manga 1st - Warnings from both uBlock and antivirus software about this site, will not bypass to check if it is still active and I advise no one to read from it",
                    "Manga Dods",
                    "Manga Lab - Warning about expired security certificate",
                    "Read Manhua",
                    "Alpha Scans - Warning from vpn about security certificate validation",
                    "Cosmic Scans - The website says they are closed"
                ]
            }
        },
        {
            "version": "3.0.1",
            "title": "[3.0.1] - 2024-05-26",
            "date": "2024-05-26",
            "body": "### Mirror Fixes\r\n\r\n-   Toonily.com - Fixed image loading\r\n\r\n### New_Mirrors\r\n\r\n-   Manga Park - https://mangapark.net\r\n-   Manga Reader.to - https://mangareader.to/home\r\n-   Fan Comics - https://www.mgeko.com\r\n-   Manga BTT - https://manhwabtt.com\r\n-   Manga Budddy - https://mangabuddy.com/home",
            "parsed": {
                "_": [
                    "Toonily.com - Fixed image loading",
                    "Manga Park - https://mangapark.net",
                    "Manga Reader.to - https://mangareader.to/home",
                    "Fan Comics - https://www.mgeko.com",
                    "Manga BTT - https://manhwabtt.com",
                    "Manga Budddy - https://mangabuddy.com/home"
                ],
                "Mirror Fixes": [
                    "Toonily.com - Fixed image loading"
                ],
                "New_Mirrors": [
                    "Manga Park - https://mangapark.net",
                    "Manga Reader.to - https://mangareader.to/home",
                    "Fan Comics - https://www.mgeko.com",
                    "Manga BTT - https://manhwabtt.com",
                    "Manga Budddy - https://mangabuddy.com/home"
                ]
            }
        },
        {
            "version": "3.0.0",
            "title": "[3.0.0] - 2024-05-19",
            "date": "2024-05-19",
            "body": "### Notes\r\n\r\n-   The extension has been rewritten to be compatible with manifest V3, this was a major overhaul that has been going on for a while. Unfortunately that means getting a complete changelog is going to be near impossible but I will try to get as many as I can included in this\r\n\r\n### New Features\r\n\r\n-   A log for gist sync errors has been added\r\n\r\n### Removed Features\r\n\r\n-   Removed error marking for fetching series list, will enable when bugs are worked out\r\n\r\n### New Mirrors\r\n\r\n-   Like Manga - https://likemanga.io\r\n-   Surya Toon - https://suryatoon.com\r\n-   Dark Scan - https://dark-scan.com/\r\n-   Creepy Scans - https://creepyscans.com/\r\n-   Hari Manga - https://harimanga.com\r\n-   Manga Galaxy - https://mangagalaxy.me\r\n-   SeiManga - https://seimanga.me\r\n-   Reaper Scans (Fake) - https://reaper-scans.com\r\n-   Animated Glitched Comics - https://agscomics.com\r\n\r\n### Mirror Fixes\r\n\r\n-   Asura - Domain changed\r\n-   Scylla Scans - Changed website\r\n-   Immortal Updates - Domain changed\r\n-   Manga Clash - Domain changed\r\n-   Top Manhua - Domain changed\r\n-   Luminous Scans - Domain changed\r\n-   Rizz Comics - Domain changed\r\n-   Manhwa Freak - Domain changed\r\n-   Immortal Updates - Domain changed\r\n-   Manga Clash - Domain changed\r\n-   Top Manhua - Domain changed\r\n-   Void Scans - Domain changed\r\n-   Reset Scans - Domain changed\r\n-   Zero Scans - Domain changed\r\n-   Manga Hub - Api added for fetching images\r\n-   Mint Manga - Fix getting chapter urls\r\n-   Read M - Domain changed\r\n-   Disaster Scans - Domain changed\r\n-   Night Scans - Domain changed\r\n-   Manga Fox - Random image failure fixes",
            "parsed": {
                "_": [
                    "The extension has been rewritten to be compatible with manifest V3, this was a major overhaul that has been going on for a while. Unfortunately that means getting a complete changelog is going to be near impossible but I will try to get as many as I can included in this",
                    "A log for gist sync errors has been added",
                    "Removed error marking for fetching series list, will enable when bugs are worked out",
                    "Like Manga - https://likemanga.io",
                    "Surya Toon - https://suryatoon.com",
                    "Dark Scan - https://dark-scan.com/",
                    "Creepy Scans - https://creepyscans.com/",
                    "Hari Manga - https://harimanga.com",
                    "Manga Galaxy - https://mangagalaxy.me",
                    "SeiManga - https://seimanga.me",
                    "Reaper Scans (Fake) - https://reaper-scans.com",
                    "Animated Glitched Comics - https://agscomics.com",
                    "Asura - Domain changed",
                    "Scylla Scans - Changed website",
                    "Immortal Updates - Domain changed",
                    "Manga Clash - Domain changed",
                    "Top Manhua - Domain changed",
                    "Luminous Scans - Domain changed",
                    "Rizz Comics - Domain changed",
                    "Manhwa Freak - Domain changed",
                    "Immortal Updates - Domain changed",
                    "Manga Clash - Domain changed",
                    "Top Manhua - Domain changed",
                    "Void Scans - Domain changed",
                    "Reset Scans - Domain changed",
                    "Zero Scans - Domain changed",
                    "Manga Hub - Api added for fetching images",
                    "Mint Manga - Fix getting chapter urls",
                    "Read M - Domain changed",
                    "Disaster Scans - Domain changed",
                    "Night Scans - Domain changed",
                    "Manga Fox - Random image failure fixes"
                ],
                "Notes": [
                    "The extension has been rewritten to be compatible with manifest V3, this was a major overhaul that has been going on for a while. Unfortunately that means getting a complete changelog is going to be near impossible but I will try to get as many as I can included in this"
                ],
                "New Features": [
                    "A log for gist sync errors has been added"
                ],
                "Removed Features": [
                    "Removed error marking for fetching series list, will enable when bugs are worked out"
                ],
                "New Mirrors": [
                    "Like Manga - https://likemanga.io",
                    "Surya Toon - https://suryatoon.com",
                    "Dark Scan - https://dark-scan.com/",
                    "Creepy Scans - https://creepyscans.com/",
                    "Hari Manga - https://harimanga.com",
                    "Manga Galaxy - https://mangagalaxy.me",
                    "SeiManga - https://seimanga.me",
                    "Reaper Scans (Fake) - https://reaper-scans.com",
                    "Animated Glitched Comics - https://agscomics.com"
                ],
                "Mirror Fixes": [
                    "Asura - Domain changed",
                    "Scylla Scans - Changed website",
                    "Immortal Updates - Domain changed",
                    "Manga Clash - Domain changed",
                    "Top Manhua - Domain changed",
                    "Luminous Scans - Domain changed",
                    "Rizz Comics - Domain changed",
                    "Manhwa Freak - Domain changed",
                    "Immortal Updates - Domain changed",
                    "Manga Clash - Domain changed",
                    "Top Manhua - Domain changed",
                    "Void Scans - Domain changed",
                    "Reset Scans - Domain changed",
                    "Zero Scans - Domain changed",
                    "Manga Hub - Api added for fetching images",
                    "Mint Manga - Fix getting chapter urls",
                    "Read M - Domain changed",
                    "Disaster Scans - Domain changed",
                    "Night Scans - Domain changed",
                    "Manga Fox - Random image failure fixes"
                ]
            }
        }
    ],
    "title": "Changelog",
    "description": "All notable changes to this project will be documented in this file.\r\n\r\nThis file is designed to be parsed by [changelog-parser](https://www.npmjs.com/package/changelog-parser).\r\nThe format is based on [Keep a Changelog](https://keepachangelog.com/en/1.1.0/).\r\nThis project adheres to [Semantic Versioning](https://semver.org/spec/v2.0.0.html).\r\n\r\nThe following sections are the standard sections to use, please stick with them for consistency\r\n\r\n-   New Features\r\n-   Changed Features\r\n-   Removed Features\r\n-   Bug Fixes\r\n-   New Mirrors\r\n-   Mirror Fixes\r\n-   Disabled Mirrors\r\n-   Notes - This is the catchall for anything that does not fit in the other sections."
}